…
homicide_data_analysis = homicide_data %>% 
  select(city_state, everything()) %>% 
  nest(data = uid:homicide_solved) %>% 
  mutate(glm_homicide_output = purrr::map(.x = data, ~ glm_homicide(.x))) %>% 
  unnest(cols = glm_homicide_output)

homicide_data_analysis
```

    ## # A tibble: 47 × 6
    ##    city_state      data                  term           odds_r…¹ lower…² upper…³
    ##    <chr>           <list>                <chr>             <dbl>   <dbl>   <dbl>
    ##  1 Albuquerque, NM <tibble [178 × 13]>   victim_sexMale    1.77    0.831   3.76 
    ##  2 Atlanta, GA     <tibble [945 × 13]>   victim_sexMale    1.00    0.684   1.46 
    ##  3 Baltimore, MD   <tibble [2,753 × 13]> victim_sexMale    0.426   0.325   0.558
    ##  4 Baton Rouge, LA <tibble [410 × 13]>   victim_sexMale    0.381   0.209   0.695
    ##  5 Birmingham, AL  <tibble [771 × 13]>   victim_sexMale    0.870   0.574   1.32 
    ##  6 Boston, MA      <tibble [492 × 13]>   victim_sexMale    0.674   0.356   1.28 
    ##  7 Buffalo, NY     <tibble [479 × 13]>   victim_sexMale    0.521   0.290   0.935
    ##  8 Charlotte, NC   <tibble [584 × 13]>   victim_sexMale    0.884   0.557   1.40 
    ##  9 Chicago, IL     <tibble [4,507 × 13]> victim_sexMale    0.410   0.336   0.501
    ## 10 Cincinnati, OH  <tibble [679 × 13]>   victim_sexMale    0.400   0.236   0.677
    ## # … with 37 more rows, and abbreviated variable names ¹​odds_ratio, ²​lower_CI,
    ## #   ³​upper_CI
…
